# Decay: D*_1s+ --> D(s)+ pi+ pi- 
#        0      --> 1     2   3   

<Options>
  AlwaysIntegrate = 0    # 0...read results and skip integration
                         # 1...don't read results and integrate
</Options>

<Phasespace>
  1.0 Isotropic
</Phasespace>

<ME>
  1.0 0.0 Generic
</ME>

<Result>
  1.343e-09 7.161e-12 2.553e-08;
</Result>
