# Decay: B --> a(1)(1260)- K+ pi 
#        0 --> 1           2  3  

<Options>
  AlwaysIntegrate = 0    # 0...read results and skip integration
                         # 1...don't read results and integrate
</Options>

<Phasespace>
  1.0 Dalitz_K*(892)+_23;
</Phasespace>

<ME>
  GF 0.0 VA_P_V[0,1] VA_0_PP_strange[3,2]
</ME>

<VA_P_V[0,1]>
  FORM_FACTOR = 2
</VA_P_V[0,1]>

<Result>
  2.32e-19 1.294e-21 4.273e-17;
</Result>
