# Decay: B --> J/psi(1S) pi+ pi- 
#        0 --> 1         2   3   

<Options>
  AlwaysIntegrate = 0    # 0...read results and skip integration
                         # 1...don't read results and integrate
</Options>

<Phasespace>
  1.0 Isotropic
</Phasespace>

<ME>
  1.0 0.0 Generic
</ME>

<Result>
  0.0001355 5.123e-07 0.002855;
</Result>
