# Decay: B --> pi- nu_e e+ 
#        0 --> 1   2    3  

<Options>
  AlwaysIntegrate = 0    # 0...read results and skip integration
                         # 1...don't read results and integrate
</Options>

<Phasespace>
  1.0 Isotropic
</Phasespace>

<ME>
  GF 0.0 VA_F_F[2,3] VA_P_P[0,1]
</ME>

<VA_P_P[0,1]>
  # Form factor model to be used for VA_P_P (1=ISGW, 2=ISGW2, 5=hep-ph/0406232, 9=BGL)
  FORM_FACTOR   = 9
</VA_P_P[0,1]>

<Result>
  2.019e-16 1.821e-18 6.222e-15;
</Result>


