# Decay: B+ --> chi(c0)(1P) K pi+ pi 
#        0  --> 1           2 3   4  

<Options>
  AlwaysIntegrate = 0    # 0...read results and skip integration
                         # 1...don't read results and integrate
</Options>

<Phasespace>
  1.0 Isotropic
</Phasespace>

<ME>
  1.0 0.0 Generic
</ME>

<Result>
  4.177e-08 1.811e-10 3.146e-06;
</Result>
