# Decay: B+ --> K*(892) rho(770)+ 
#        0  --> 1       2         

<Options>
  AlwaysIntegrate = 0    # 0...read results and skip integration
                         # 1...don't read results and integrate
</Options>

<Phasespace>
  1.0 Isotropic
</Phasespace>

<ME>
  1.0 0.0 Generic
</ME>

<Result>
  1.254 0 13.24;
</Result>
