# Decay: B(c)+ --> D*(2007) nu_e e+ 
#        0     --> 1        2    3  

<Options>
  AlwaysIntegrate = 0    # 0...read results and skip integration
                         # 1...don't read results and integrate
</Options>

<Phasespace>
  1.0 Isotropic
</Phasespace>

<ME>
  1.0 0.0 Generic
</ME>

<Result>
  0.002586 8.561e-06 0.04539;
</Result>
