#        0         --> 1          2   

<Options>
  AlwaysIntegrate = 0    # 0...read results and skip integration
                         # 1...don't read results and integrate
</Options>

<Phasespace>
  1.0 Isotropic
</Phasespace>

<ME>
  1.0 0.0 Generic
</ME>

<Result>
  4.885e-06 4.189e-08 0.0001977;
</Result>
