# Decay: B(s) --> D*(2010)+ D- K- pi+ 
#        0    --> 1         2  3  4   

<Options>
  AlwaysIntegrate = 0    # 0...read results and skip integration
                         # 1...don't read results and integrate
</Options>

<Phasespace>
  1.0 Isotropic
</Phasespace>

<ME>
  1.0 0.0 Generic
</ME>

<Result>
  9.568e-08 4.677e-10 6.467e-06;
</Result>
