# Decay: B(s) --> D(s)*- D*(2007) K*(892)+ 
#        0    --> 1      2        3        

<Options>
  AlwaysIntegrate = 0    # 0...read results and skip integration
                         # 1...don't read results and integrate
</Options>

<Phasespace>
  1.0 Isotropic
</Phasespace>

<ME>
  1.0 0.0 Generic
</ME>

<Result>
  8.641e-05 3.146e-07 0.001736;
</Result>
