# Decay: Lambda+_{c} --> Sigma+ pi+ pi+b 
#        0           --> 2      4    

<Options>
  AlwaysIntegrate = 0    # 0...read results and skip integration
                         # 1...don't read results and integrate
</Options>

<Phasespace>
  1.0 Isotropic
</Phasespace>

<ME>
  1.0 0.0 Generic
</ME>

<Result>
  4.914e-05 2.35e-07 0.0004303;
</Result>
