# Decay: Sigma- --> n nu_eb e- 
#        0      --> 1 2     3  

<Options>
  AlwaysIntegrate = 0    # 0...read results and skip integration
                         # 1...don't read results and integrate
</Options>

<Phasespace>
  1.0 Isotropic
</Phasespace>

<ME>
#  GF 0.0 VA_B_B_hepph9409272[0,1] VA_F_F[3,2]
  1.0 0.0 Generic
</ME>

<Result>
  1.42e-05 6.919e-08 8.205e-05;
</Result>
