# Decay: D(s)+ --> omega(782)  pi+ pi+ pi-
#        0     -->  1          2   3   4

<Options>
  AlwaysIntegrate = 0    # 0...read results and skip integration
                         # 1...don't read results and integrate
</Options>

<Phasespace>
  1.0 Isotropic
</Phasespace>


<ME>
  1.0 0.0 Generic
</ME>


<Result>
  5.763e-08 5.142e-10 6.433e-07;
</Result>
