# Decay: D(1)(2420)+ --> D*(2007) pi+ 
#        0           --> 1        2   

<Options>
  AlwaysIntegrate = 0    # 0...read results and skip integration
                         # 1...don't read results and integrate
</Options>

<Phasespace>
  1.0 Isotropic
</Phasespace>

<ME>
  1.0 0.0 Generic
</ME>

<Result>
  0.05879 0 0.285;
</Result>
